Version 1.9.003
 ! Py3 #CodeCosmetics (SR_v19)

Version 1.9.002
 ! Py3 #CodeCosmetics (SR_v19)

Version 1.9.001
 ! Py3 #StableRelease (SR_v19)

Version 1.9.000
 ! enter the Matrix (beta_v19)

Version 1.8.001
 ! Leia vOoDoO: minor updates & #codecosmetics

Version 1.8.000
 ! 1st. Leia vOoDoO

Version 1.7.2+3+4+5+6+7+8
 ! VoOdOo and bug splat !

Version 1.6
 ! bug splat

Version 1.5
 ! bug splat

Version 1.4
 - Initial Release
